Vod Report
…
Time and subgeography adjusted

full_models$model_district_adjusted %>% broom::tidy()

## # A tibble: 94 x 5
##    term                estimate std.error statistic   p.value
##    <chr>                  <dbl>     <dbl>     <dbl>     <dbl>
##  1 (Intercept)          -1.53     0.0945    -16.2   2.74e- 59
##  2 is_darkTRUE           0.0311   0.00548     5.69  1.30e-  8
##  3 ns(minute, df = 6)1  -0.0106   0.0122     -0.868 3.85e-  1
##  4 ns(minute, df = 6)2   0.0844   0.0154      5.47  4.53e-  8
##  5 ns(minute, df = 6)3   0.255    0.0138     18.5   4.44e- 76
##  6 ns(minute, df = 6)4   0.252    0.0130     19.4   8.82e- 84
##  7 ns(minute, df = 6)5   0.247    0.0241     10.3   1.14e- 24
##  8 ns(minute, df = 6)6   0.282    0.0125     22.5   5.98e-112
##  9 subgeography01        1.98     0.0960     20.6   4.56e- 94
## 10 subgeography02        2.03     0.0958     21.2   5.47e-100
## # ... with 84 more rows
…
Time and subgeography adjusted

dst_models$model_district_adjusted %>% broom::tidy()

## # A tibble: 85 x 5
##    term                estimate std.error statistic  p.value
##    <chr>                  <dbl>     <dbl>     <dbl>    <dbl>
##  1 (Intercept)          -1.88      0.301      -6.24 4.40e-10
##  2 is_darkTRUE           0.136     0.0188      7.25 4.16e-13
##  3 ns(minute, df = 6)1  -0.0617    0.0295     -2.09 3.67e- 2
##  4 ns(minute, df = 6)2   0.105     0.0403      2.60 9.40e- 3
##  5 ns(minute, df = 6)3   0.133     0.0379      3.50 4.72e- 4
##  6 ns(minute, df = 6)4   0.152     0.0338      4.50 6.66e- 6
##  7 ns(minute, df = 6)5   0.187     0.0587      3.19 1.44e- 3
##  8 ns(minute, df = 6)6   0.138     0.0326      4.22 2.39e- 5
##  9 subgeography01        2.25      0.304       7.41 1.23e-13
## 10 subgeography02        2.34      0.303       7.70 1.34e-14
## # ... with 75 more rows
…
